./classic/jvm.dll
./iverel24.dll
./j9bcv24.dll
./j9dbg24.dll
./j9dmp24.dll
./j9dyn24.dll
./j9gc24.dll
./j9gcchk24.dll
./j9hookable24.dll
./j9jar24.dll
./j9jextract.dll
./j9jit24.dll
./j9jitd24.dll
./j9jnichk24.dll
./j9jvmti24.dll
./j9prt24.dll
./j9rdbi24.dll
./j9shr24.dll
./j9thr24.dll
./j9trc24.dll
./j9ute24.dll
./j9vm/jvm.dll
./j9vm24.dll
./j9vrb24.dll
./j9zlib24.dll
./jclscar_24.dll
./jsig.dll
